Chapter 8 Data manipulations | A Minimal Book Example
…
cv08_haven <- mutate(cv08_haven, int057n=recode(int057, '-6'=-9, '-5'=-9,'-3'=-9,'-2'=-9, '1'=4, '2'= 3 , '3'= 2, '4'= 1), .keep_value_labels = FALSE) %>% 
  mutate(int057n=na_if(int057n, -9)) %>%
  mutate(int057n=labelled(int057n, c("Helemaal geen tegenstelling" = 1, "Niet zo groot" = 2, "Groot"=3, "Zeer groot"=4)))

#Step 3: calculate means. 
## option 1
cv08_haven <- cv08_haven %>% 
  rowwise() %>% 
  mutate(int_mean = mean(c(int055n, int056n, int057n), na.rm=TRUE))

## option 2
cv08_haven %>% 
  mutate(int_mean = rowMeans(cbind(int055n, int056n, int057n), na.rm=TRUE))

## # A tibble: 1,963 x 285
## # Rowwise: 
##      we_id  veilignr   lft1 geslacht  allochtn lft01 lftop gewicht var006n    v040   var723  var723a
##    <dbl+l>     <dbl> <dbl+> <chr+lbl> <dbl+lb> <dbl> <dbl>   <dbl> <dbl+l> <dbl+l> <dbl+lb> <dbl+lb>
##  1  3.68e7 811002474     51 M [Man]   0 [geen~    50    51   8423. 6 [hbo] 2 [Nee] -5 [N.v~ -5 [N.v~
##  2  3.68e7 811002539     39 V [Vrouw] 0 [geen~    38    39   6244. 8 [wo]  1 [Ja]  45       -5 [N.v~
##  3  3.68e7 811002551     16 V [Vrouw] 1 [allo~    15    16  13434. 3 [mav~ 2 [Nee] -5 [N.v~ -5 [N.v~
##  4  3.68e7 811002563     30 M [Man]   0 [geen~    29    29   8997  8 [wo]  1 [Ja]  20       -5 [N.v~
##  5  3.68e7 811002743     57 M [Man]   0 [geen~    56    57   8423. 6 [hbo] 2 [Nee] -5 [N.v~ -5 [N.v~
##  6  3.68e7 811002607     49 V [Vrouw] 1 [allo~    48    49   9537. 2 [vmb~ 2 [Nee] -5 [N.v~ -5 [N.v~
##  7  3.68e7 811002652     62 M [Man]   0 [geen~    61    62   8882. 2 [vmb~ 1 [Ja]  40       -5 [N.v~
##  8  3.68e7 811002741     34 V [Vrouw] 1 [allo~    33    34   5768. 5 [mbo] 1 [Ja]  32       -5 [N.v~
##  9  3.68e7 811002774     59 M [Man]   0 [geen~    58    59   7986. 5 [mbo] 1 [Ja]  30       -5 [N.v~
## 10  3.68e7 811002714     41 M [Man]   0 [geen~    40    41   9108. 1 [bas~ 1 [Ja]  20       -5 [N.v~
## # ... with 1,953 more rows, and 273 more variables: v202n <dbl+lbl>, var1061a <dbl+lbl>,
## #   var1061b <dbl+lbl>, var1062a <dbl+lbl>, var1062b <dbl+lbl>, int137n <dbl+lbl>,
## #   int138n <dbl+lbl>, int139n <dbl+lbl>, int140n <dbl+lbl>, int141n <dbl+lbl>, v401 <dbl+lbl>,
## #   var1343 <dbl+lbl>, var648 <dbl+lbl>, var149 <dbl+lbl>, var058 <dbl+lbl>, var059 <dbl+lbl>,
## #   var064 <dbl+lbl>, var365 <dbl+lbl>, var065 <dbl+lbl>, var092 <dbl+lbl>, var096 <dbl+lbl>,
## #   int054 <dbl+lbl>, int055 <dbl+lbl>, int056 <dbl+lbl>, int057 <dbl+lbl>, int058 <dbl+lbl>,
## #   int059 <dbl+lbl>, int059a <dbl+lbl>, var571 <dbl+lbl>, var572 <dbl+lbl>, var573 <dbl+lbl>,
## #   var574 <dbl+lbl>, var576 <dbl+lbl>, var153 <dbl+lbl>, var154 <dbl+lbl>, var155 <dbl+lbl>,
## #   var156 <dbl+lbl>, var157 <dbl+lbl>, var157a <dbl+lbl>, var154a <dbl+lbl>, var164 <dbl+lbl>,
…
#what we really want is a mean but only if there is a maximum of 1 NA in the three variables

cv08_haven %>% 
  mutate(int_mean_temp = rowMeans(cbind(int055n, int056n, int057n), na.rm=TRUE),
         nmis = rowSums(is.na(cbind(int055n, int056n, int057n))), 
         int_mean = ifelse(nmis<2, int_mean_temp, NA)) %>%
  select(-int_mean_temp, -nmis)

## # A tibble: 1,963 x 285
## # Rowwise: 
##      we_id  veilignr   lft1 geslacht  allochtn lft01 lftop gewicht var006n    v040   var723  var723a
##    <dbl+l>     <dbl> <dbl+> <chr+lbl> <dbl+lb> <dbl> <dbl>   <dbl> <dbl+l> <dbl+l> <dbl+lb> <dbl+lb>
##  1  3.68e7 811002474     51 M [Man]   0 [geen~    50    51   8423. 6 [hbo] 2 [Nee] -5 [N.v~ -5 [N.v~
##  2  3.68e7 811002539     39 V [Vrouw] 0 [geen~    38    39   6244. 8 [wo]  1 [Ja]  45       -5 [N.v~
##  3  3.68e7 811002551     16 V [Vrouw] 1 [allo~    15    16  13434. 3 [mav~ 2 [Nee] -5 [N.v~ -5 [N.v~
##  4  3.68e7 811002563     30 M [Man]   0 [geen~    29    29   8997  8 [wo]  1 [Ja]  20       -5 [N.v~
##  5  3.68e7 811002743     57 M [Man]   0 [geen~    56    57   8423. 6 [hbo] 2 [Nee] -5 [N.v~ -5 [N.v~
##  6  3.68e7 811002607     49 V [Vrouw] 1 [allo~    48    49   9537. 2 [vmb~ 2 [Nee] -5 [N.v~ -5 [N.v~
##  7  3.68e7 811002652     62 M [Man]   0 [geen~    61    62   8882. 2 [vmb~ 1 [Ja]  40       -5 [N.v~
##  8  3.68e7 811002741     34 V [Vrouw] 1 [allo~    33    34   5768. 5 [mbo] 1 [Ja]  32       -5 [N.v~
##  9  3.68e7 811002774     59 M [Man]   0 [geen~    58    59   7986. 5 [mbo] 1 [Ja]  30       -5 [N.v~
## 10  3.68e7 811002714     41 M [Man]   0 [geen~    40    41   9108. 1 [bas~ 1 [Ja]  20       -5 [N.v~
## # ... with 1,953 more rows, and 273 more variables: v202n <dbl+lbl>, var1061a <dbl+lbl>,
## #   var1061b <dbl+lbl>, var1062a <dbl+lbl>, var1062b <dbl+lbl>, int137n <dbl+lbl>,
## #   int138n <dbl+lbl>, int139n <dbl+lbl>, int140n <dbl+lbl>, int141n <dbl+lbl>, v401 <dbl+lbl>,
## #   var1343 <dbl+lbl>, var648 <dbl+lbl>, var149 <dbl+lbl>, var058 <dbl+lbl>, var059 <dbl+lbl>,
## #   var064 <dbl+lbl>, var365 <dbl+lbl>, var065 <dbl+lbl>, var092 <dbl+lbl>, var096 <dbl+lbl>,
## #   int054 <dbl+lbl>, int055 <dbl+lbl>, int056 <dbl+lbl>, int057 <dbl+lbl>, int058 <dbl+lbl>,
## #   int059 <dbl+lbl>, int059a <dbl+lbl>, var571 <dbl+lbl>, var572 <dbl+lbl>, var573 <dbl+lbl>,
## #   var574 <dbl+lbl>, var576 <dbl+lbl>, var153 <dbl+lbl>, var154 <dbl+lbl>, var155 <dbl+lbl>,
## #   var156 <dbl+lbl>, var157 <dbl+lbl>, var157a <dbl+lbl>, var154a <dbl+lbl>, var164 <dbl+lbl>,
…
